{
  "id": "_default",
  "repository": "https://github.com/yyuu/myapp.git",
  "branch": "master",
  "app_env": "development",
  "overwrites": {
    "master_port": 8080,
    "slave_port": 8081,
    "database": {
      "password": "passw0rd"
    }
  },
  "clusters": {
    "CLUSTER1": {
      "nodes": {
        "demoserver-a" : {
          "role" : "slave",
          "processes": {
            "aproc": {
              ":id": "aproc",
              "master_port": 6888,
              "slave_port": 5444,
              "data.dir": "/var/log/datazslave",
              "logs.dir": "/var/log/logzslave",
              "database": {
                "password": "passw0rd"
              }
            },
            "bproc": {
              ":id": "bproc",
              "master_port": 7888,
              "slave_port": 3444,
              "data.dir": "/var/log/datazslave",
              "logs.dir": "/var/log/logzslave",
              "database": {
                "password": "passw0rd"
              }
            }
          }
        },
        "demoserver-b" : {
          "role" : "master",
          "processes": {
            "aproc": {
              ":id": "aproc",
              "master_port": 1888,
              "slave_port": 5444,
              "data.dir": "/var/log/datazmaster",
              "logs.dir": "/var/log/logzmaster",
              "database": {
                "password": "passw0rd"
              }
            },
            "bproc": {
              ":id": "bproc",
              "master_port": 2888,
              "slave_port": 2244,
              "data.dir": "/var/log/datazmaster",
              "logs.dir": "/var/log/logzmaster",
              "database": {
                "password": "passw0rd"
              }
            }
          }
        }
      },
      "config:master": {
        "data.dir": "data",
        "logs.dir": "logs"
      },
      "config": {
        "data.dir": "data",
        "logs.dir": "logs"
      }
    }
   },
  "default_cluster": "CLUSTER1"
}
